…
# A tibble: 398 × 23
   GlobalID  decimalLatitude decimalLongitude LIT   unitName  subunitName recordedBy eventDate quadratSize managementAction
   <chr>               <dbl>            <dbl> <chr> <chr>     <chr>       <chr>      <chr>     <chr>       <chr>           
 1 {00D5778…            41.4            -121. MDC   Matney 3  Matney 3    jessica_s… 8/24/202… 30x30       none            
 2 {00DDB9C…            41.4            -121. MDC   Matney 4… Matney 4 N… jessica_s… 8/24/202… 30x30       none            
 3 {00DDB9C…            41.4            -121. MDC   Matney 4… Matney 4 N… jessica_s… 8/24/202… 30x30       none            
 4 {00DDB9C…            41.4            -121. MDC   Matney 4… Matney 4 N… jessica_s… 8/24/202… 30x30       none            
 5 {01073B6…            35.9            -119. PIX   2A        2A          therese_b… 7/29/202… 30x30       none            
 6 {01073B6…            35.9            -119. PIX   2A        2A          therese_b… 7/29/202… 30x30       none            
 7 {01073B6…            35.9            -119. PIX   2A        2A          therese_b… 7/29/202… 30x30       none            
 8 {01073B6…            35.9            -119. PIX   2A        2A          therese_b… 7/29/202… 30x30       none            
 9 {01073B6…            35.9            -119. PIX   2A        2A          therese_b… 7/29/202… 30x30       none            
10 {01E8F17…            41.5            -121. MDC   Grandma … Grandma Tr… jessica_s… 8/26/202… 30x30       none            
# … with 388 more rows, and 13 more variables: taxonID <int>, vernacularName <chr>, stratum <chr>, plantHeight <dbl>,
#   nSeedHeads <int>, eventRemarks <chr>, GlobalID_seed <chr>, GlobalID_CP <chr>, GlobalID_VP <chr>, distanceCP_m <dbl>,
#   distanceVP_m <dbl>, f2t_length_mm <int>, sh_length_mm <int>
…
